digraph G
{
  edge [fontname="Helvetica",fontsize="10",labelfontname="Helvetica",labelfontsize="10"];
  node [fontname="Helvetica",fontsize="10",shape=record];
  Node1 [label="allfours.ui.TiledSprite",height=0.2,width=0.4,color="black", fillcolor="grey75", style="filled" fontcolor="black"];
  Node2 -> Node1 [dir="back",color="midnightblue",fontsize="10",style="solid",fontname="Helvetica"];
  Node2 [label="allfours.ui.Sprite",height=0.2,width=0.4,color="black", fillcolor="white", style="filled",URL="$classallfours_1_1ui_1_1_sprite.html"];
  Node3 -> Node1 [dir="back",color="darkorchid3",fontsize="10",style="dashed",label=" image" ,fontname="Helvetica"];
  Node3 [label="Image",height=0.2,width=0.4,color="grey75", fillcolor="white", style="filled"];
}
